TABS an R Package • TABS
…
Additional Arguments

In addition to dates you can search for projects by county, city, address, owner name, facility, and/or project name. The below example will search for all projects in the City of Austin that are owned by Tesla.

GetProjects(
  city = "Austin",
  owner = "Tesla"
)
#> # A tibble: 47 × 13
#>    ProjectNumber  FacilityName            City   County TypeOfWork EstimatedCost
#>    <chr>          <chr>                   <chr>  <chr>  <chr>              <dbl>
#>  1 TABS2026006064 Tesla                   Austin Travis New Const…        250000
#>  2 TABS2025021701 Tesla Gigafactory       Austin Travis New Const…         50000
#>  3 TABS2025021600 Tesla Gigafactory       Austin Travis New Const…         50000
#>  4 TABS2025020452 Tesla Gigafactory       Austin Travis New Const…         50000
#>  5 TABS2025020451 Tesla Gigafactory       Austin Travis New Const…         50000
#>  6 TABS2025020450 Tesla Gigafactory       Austin Travis New Const…         50000
#>  7 TABS2025020449 Tesla Gigafactory       Austin Travis New Const…         50000
#>  8 TABS2025020448 Tesla Gigafactory       Austin Travis New Const…         50000
#>  9 TABS2025011400 Tesla Gigafactory Texas Austin Travis New Const…         50000
#> 10 TABS2025008524 Tesla                   Austin Travis New Const…        200000
#> # ℹ 37 more rows
#> # ℹ 7 more variables: ProjectStatus <chr>, ProjectId <chr>, ProjectName <chr>,
#> #   ProjectCreatedOn <chr>, DataVersionId <int>, EstimatedStartDate <chr>,
#> #   EstimatedEndDate <chr>
…
