TABS an R Package • TABS
…
Additional Arguments

In addition to dates you can search for projects by county, city, address, owner name, facility, and/or project name. The below example will search for all projects in the City of Austin that are owned by Tesla.

GetProjects(
  city = "Austin",
  owner = "Tesla"
)
#> # A tibble: 46 × 13
#>    ProjectId            ProjectNumber ProjectName ProjectCreatedOn ProjectStatus
#>    <chr>                <chr>         <chr>       <chr>            <chr>        
#>  1 2204d890-e4df-4414-… TABS20250217… Visitor Ci… 2025-06-20T07:2… Review Compl…
#>  2 d9b4c252-d7c4-4b36-… TABS20250216… Employee a… 2025-06-18T16:4… Review Compl…
#>  3 6430d938-860c-4e55-… TABS20250204… GAX PS      2025-06-04T07:3… Project Clos…
#>  4 22527b2b-0091-4784-… TABS20250204… GA PS       2025-06-04T07:3… Review Compl…
#>  5 bc6e75ff-e12c-4310-… TABS20250204… DU PS       2025-06-04T07:2… Review Compl…
#>  6 9833e924-929c-45aa-… TABS20250204… ST2 Office  2025-06-04T07:2… Review Compl…
#>  7 b4c97f71-8388-4976-… TABS20250204… ST1 Breakr… 2025-06-04T07:2… Review Compl…
#>  8 435d677f-c3f0-489b-… TABS20250114… HGR         2025-02-07T14:2… Review Compl…
#>  9 f87daa44-7c65-4377-… TABS20250085… Tesla - Au… 2024-12-27T15:1… Review Compl…
#> 10 ecdc154a-ad93-4bf4-… TABS20250043… GA Lobby    2024-10-29T06:5… Project Clos…
#> # ℹ 36 more rows
#> # ℹ 8 more variables: FacilityName <chr>, City <chr>, County <chr>,
#> #   TypeOfWork <chr>, EstimatedCost <dbl>, DataVersionId <int>,
#> #   EstimatedStartDate <chr>, EstimatedEndDate <chr>
…
